{
  "name": "usuario",
  "base": "PersistedModel",
  "idInjection": true,
  "options": {
    "validateUpsert": true
  },
  "properties": {
    "id": {
      "type": "number"
    },
    "usuario": {
      "type": "string"
    },
    "senha": {
      "type": "string"
    },
    "cpf": {
      "type": "string"
    },
    "telefone": {
      "type": "string"
    },
    "email": {
      "type": "string"
    },
    "cep": {
      "type": "string"
    },
    "c_at": {
      "type": "date"
    },
    "m_at": {
      "type": "date"
    }
  },
  "validations": [],
  "relations": {},
  "acls": [],
  "methods": {}
}
